----------------------------------------------------------------
        Layer (type)               Output Shape         Param #
================================================================
           Flatten-1                [1000, 784]               0
            Linear-2                 [1000, 64]          50,240
           Dropout-3                 [1000, 64]               0
              ReLU-4                 [1000, 64]               0
            Linear-5                [1000, 784]          50,960
================================================================
Total params: 101,200
Trainable params: 101,200
Non-trainable params: 0
----------------------------------------------------------------
